…
Now for the animals `data.frame` I need names of animals in singular and plural form because tweets might contain animals in both forms. I first decided to just paste an "s" to the names since it'd work most of the time but then I realized Bob Rudis has a package for pluralizing and singularizing any English word, [`pluralizer`](https://github.com/hrbrmstr/pluralize). 



```r
library("pluralize")
animals <- tibble::tibble(animal_for_detect = corpora("animals/common")$animals)
animals <- mutate(animals, animal = animal_for_detect)
animals <- mutate(animals, animal_for_detect = pluralize(animal_for_detect)) %>%
  bind_rows(animals)
animals
```

```
## # A tibble: 268 × 2
##    animal_for_detect    animal
##                <chr>     <chr>
## 1          aardvarks  aardvark
## 2         alligators alligator
## 3            alpacas    alpaca
## 4          antelopes  antelope
## 5               apes       ape
## 6         armadillos armadillo
## 7            baboons    baboon
## 8            badgers    badger
## 9               bats       bat
## 10             bears      bear
## # ... with 258 more rows
```
…
Now I can join the two tables and like Julia in her post I'll only keep one occurence of an animal per tweet.


```r
tidy_tweets <- inner_join(tidy_tweets, animals,
                          by = "animal_for_detect") %>%
  distinct(status_id, animal, .keep_all = TRUE)
tidy_tweets <- select(tidy_tweets, animal_for_detect, animal, everything())

tidy_tweets
```

```
## # A tibble: 560 × 23
##    animal_for_detect   animal          created_at          status_id
##                <chr>    <chr>              <dttm>              <chr>
## 1               rats      rat 2017-02-05 07:53:28 828149527987171328
## 2            leopard  leopard 2017-02-05 07:52:33 828149297208233985
## 3                cat      cat 2017-02-05 06:57:34 828135460237094919
## 4               fish     fish 2017-02-05 06:26:14 828127576996487168
## 5            turtles   turtle 2017-02-05 06:22:58 828126753805783044
## 6           squirrel squirrel 2017-02-05 06:12:04 828124011431342080
## 7              snake    snake 2017-02-05 06:07:47 828122933390225409
## 8           gorillas  gorilla 2017-02-05 05:49:30 828118330473140224
## 9              sheep    sheep 2017-02-05 05:39:01 828115691572125696
## 10           parrots   parrot 2017-02-05 05:34:55 828114661027504129
## # ... with 550 more rows, and 19 more variables: source <chr>,
## #   in_reply_to_status_id <chr>, in_reply_to_user_id <chr>,
## #   in_reply_to_screen_name <chr>, is_quote_status <lgl>,
## #   retweet_count <int>, favorite_count <int>, lang <chr>,
## #   quoted_status_id <chr>, user_id <chr>, screen_name <chr>,
## #   mentions_user_id <chr>, mentions_screen_name <chr>, hashtags <chr>,
## #   urls <chr>, is_retweet <lgl>, retweet_status_id <lgl>,
## #   place_name <chr>, country <chr>
```
…
After doing this, I can at last have a look the frequency of animals in the tweets!


```r
animal_counts <- tidy_tweets %>% 
  group_by(animal) %>% 
  summarise(n = n()) %>% 
  arrange(desc(n))

animal_counts
```

```
## # A tibble: 75 × 2
##     animal     n
##      <chr> <int>
## 1     fish    77
## 2      bat    42
## 3      dog    35
## 4  reptile    33
## 5      cat    28
## 6     frog    27
## 7   turtle    23
## 8    snake    22
## 9   parrot    21
## 10  lizard    17
## # ... with 65 more rows
```
…
