…
offsets <- (0:floor(no_animals/20))*20

purrr::map_df(offsets, get_twenty, session = session) %>%
  readr::write_csv("oreilly_animals.csv")
  
```

I got 1134 rows, each corresponding to a book, with animals potentially
repeated.

``` r
animals
```

    ## # A tibble: 1,134 x 2
    ##    book                            animal                                 
    ##    <chr>                           <chr>                                  
    ##  1 Mobile Design and Development   12-Wired Bird of Paradise              
    ##  2 Windows PowerShell for Develop~ 3-Banded Armadillo                     
    ##  3 Jakarta Commons Cookbook        Aardvark                               
    ##  4 Clojure Cookbook                Aardwolf                               
    ##  5 Ubuntu: Up and Running          Addax, aka Screwhorn Antelope          
    ##  6 Social eCommerce                Adjutant (Storks)                      
    ##  7 BioBuilder                      Aegina Citrea, narcomedusae, jellyfish 
    ##  8 JRuby Cookbook                  African Civet                          
    ##  9 C# 5.0 Pocket Reference         African Crowned Crane aka Grey Crowned~
    ## 10 Programming C# 5.0              African Crowned Crane aka Grey Crowned~
    ## # ... with 1,124 more rows
…
