…
pdf_text <- split_days(pdf_text, dates)

length(pdf_text)
```

    ## [1] 50

``` r
pdf_text[[2]]
```

    ## # A tibble: 243 x 8
    ##    width height     x     y space text       page date      
    ##    <int>  <int> <int> <dbl> <lgl> <chr>     <int> <date>    
    ##  1    60     12   220    72 TRUE  SCHEDULE      2 2018-11-08
    ##  2    15     12   283    72 TRUE  OF            2 2018-11-08
    ##  3    23     12   301    72 TRUE  THE           2 2018-11-08
    ##  4    62     12   327    72 FALSE PRESIDENT     2 2018-11-08
    ##  5    44     12   240    99 TRUE  Thursday,     2 2018-11-08
    ##  6    46     12   287    99 TRUE  November      2 2018-11-08
    ##  7     8     12   336    99 TRUE  8,            2 2018-11-08
    ##  8    21     12   347    99 FALSE 2018          2 2018-11-08
    ##  9    19     12    72   140 TRUE  8:00          2 2018-11-08
    ## 10    17     12    94   140 FALSE AM            2 2018-11-08
    ## # … with 233 more rows
…
all_events <- extract_info(all_events)
```

At this point, again, in a real work environment I’d spend time checking
data carefuly, but instead, I’ll just have a rough look at the clean
data vs my own cleaned data.

``` r
dplyr::count(clean_data, listed_project_officer, sort = TRUE) 
```

    ## # A tibble: 39 x 2
    ##    listed_project_officer     n
    ##    <chr>                  <int>
    ##  1 <NA>                     369
    ##  2 Ambassador John Bolton    33
    ##  3 Sarah Sanders             25
    ##  4 Lindsay Reynolds          18
    ##  5 Shahira Knight            18
    ##  6 William McGinley          18
    ##  7 Christopher Liddell       13
    ##  8 John DeStefano            10
    ##  9 Mercedes Schlapp           9
    ## 10 Tim Pataki                 7
    ## # … with 29 more rows

``` r
dplyr::count(all_events, trimws(project_officer), sort = TRUE) 
```

    ## # A tibble: 32 x 2
    ##    `trimws(project_officer)`     n
    ##    <chr>                     <int>
    ##  1 <NA>                        467
    ##  2 Ambassador John Bolton       32
    ##  3 Sarah Sanders                23
    ##  4 Shahira Knight               18
    ##  5 William McGinley             16
    ##  6 Lindsay Reynolds             15
    ##  7 Christopher Liddell          13
    ##  8 John DeStefano               10
    ##  9 Mercedes Schlapp              9
    ## 10 Tim Pataki                    7
    ## # … with 22 more rows

``` r
dplyr::count(clean_data, listed_location, sort = TRUE) 
```

    ## # A tibble: 36 x 2
    ##    listed_location             n
    ##    <chr>                   <int>
    ##  1 Oval office               310
    ##  2 <NA>                       75
    ##  3 Oval Office                48
    ##  4 Private dining room        34
    ##  5 Buenos Aires, Argentina    21
    ##  6 oval office                 9
    ##  7 Grand foyer                 7
    ##  8 Roosevelt room              6
    ##  9 Cabinet Room                5
    ## 10 East Room                   5
    ## # … with 26 more rows

``` r
dplyr::count(all_events, trimws(location), sort = TRUE) 
```

    ## # A tibble: 34 x 2
    ##    `trimws(location)`            n
    ##    <chr>                     <int>
    ##  1 Oval Office                 377
    ##  2 <NA>                        151
    ##  3 Private Dining Room          35
    ##  4 Buenos Aires                 18
    ##  5 Grand Foyer                   8
    ##  6 Cabinet Room                  7
    ##  7 Roosevelt Room                7
    ##  8 Biloxi                        4
    ##  9 Diplomatic Reception Room     4
    ## 10 McAllen                       4
    ## # … with 24 more rows
…
