…
    ## [1] "portfolio, blogdown, rmarkdown, knitr, shiny, maps I really like seeing all these #rstats 2019 goals. My own, in order of urgency:\n1) Finish my personal website and online portfolio using blogdown\n2) Get rolling with project workflows, rmarkdown, and knitr \n3) Create shiny apps for custom interactive maps"                                           
    ## [2] "inference, projects, import, rvest, httr, xml2 My #rstats 2019 goals:\n1. Improve my statistical modeling and inference skills\n2. Develop business literacy and apply it in data analysis projects\n3. Continue to post on my blog (1 post every 2 months)\n4. Learn to import data using DBI, rvest, httr, and xml2"                                           
    ## [3] "shiny, templates, shiny, shiny, bookdown, shiny My #RStats goals for 2019: \n\n1<U+FE0F><U+20E3> Improve shinydashboardPlus, bs4Dash and argonDash ..<U+0001F973> \n\n2<U+FE0F><U+20E3> Release new shiny templates              \n3<U+FE0F><U+20E3> Open a consulting service for https://t.co/k3PAbxyVMa about shiny \n4<U+FE0F><U+20E3> Write an advanced shiny book with bookdown <U+0001F388>\n#rstats #shiny #consulting https://t.co/Fyc7MhaeW8"

There are false positives, e.g. `projects` was here meant as a word, not
a package name. What about the most popular packages among the tweets?

``` r
dplyr::count(pkg_tokens, token, sort = TRUE)
```

    ## # A tibble: 66 x 2
    ##    token         n
    ##    <chr>     <int>
    ##  1 shiny        16
    ##  2 blogdown      9
    ##  3 projects      9
    ##  4 rmarkdown     9
    ##  5 tidyverse     6
    ##  6 bookdown      5
    ##  7 purrr         4
    ##  8 track         4
    ##  9 caret         3
    ## 10 markdown      3
    ## # ... with 56 more rows
…
